{
    "ip": "1.2.3.4", 
    "pipeline": "someversion", 
    "data": {
        "samples": [
            "S1", 
            "S2", 
            "S3", 
            "S4"
        ], 
        "reference": "IGH_HUMAN"
    }, 
    "progress": [
        {
            "status": "INITIALIZING", 
            "timestamp": "2015-11-26 15:22:18", 
            "message": "Initializing progress monitor", 
            "ip": "1.2.3.4"
        }
    ]
}
